year,name
2020,Amelia McNamara
2020,Anna Krystalli
2020,Erin LeDell
2020,Martin Mächler
2020,Luke Tierney
2020,Noam Ross
2020,Przemysław Biecek
2019,Joe Cheng
2019,Julien Cornebiese
2019,Bettina Grün
2019,Julie Josse
2019,Martin Morgan
2019,Julia Stewart Lowndes
2018,Steph de Silva
2018,Heike Hofmann
2018,Bill Venables
2018,Roger Peng
2018,Thomas Lin Pedersen
2018,Jenny Bryan
2017,Yves Rosseel 
2017,Norm Matloff
2017,Isabella Gollini
2017,Mine Çetinkaya-Rundel
2017,Ludwig Hothorn
2017,Uwe Ligges
2016,Richard Becker
2016,Donald Knuth
2016,Deborah Nolan
2016,Simon Urbanek
2016,Hadley Wickham
2016,Daniela Witten
2015,Thomas Lumley
2015, Adrian Baddeley
2015, Steffen Lauritzen
2015, Di Cook
2015, Romain François
2015, Susan Holmes
2014,John Chambers
2014,Martin Mächler
2014,Dirk Eddelbuettel
2014,David Diez
2014,Karline Soetaert
2014,Katharine Mullen
2013,Maria Jesús Bayarri
2013,Jose Manuel Benítez-Sánchez
2013,Duncan Murdoch
2013,Havard Rue
2013,Steve Scott
2013,Hadley Wickham
2012,Di Cook
2012,Kevin Coombs
2012,Bill Venables
2012,Tim Hesterberg
2012,Norm Matloff
2012,Yihui Xie
2012,Bryan Hanson
2012,Simon Urbanek
2011,Adrian Bowman
2011,Lee Edlefsen
2011,Ulrike Gr?mping
2011,Wolfgang Huber
2011,Brian Ripley
2011,Jonathan Rougier
2011,Simon Urbanek
2011,Brandon Whitcher
2010,Mark Handcock
2010,Frank Harrell Jr
2010,Friedrich Leisch
2010,Michael Meyer
2010,Richard Stallman
2010,Luke Tierney
2010,Diethelm Wuertz
2009,Adele Cutler
2009,Peter Dalgaard
2009,Jerome H. Friedman
2009,Michael Greenacre
2009,Trevor Hastie
2009,John Storey
2009,Martin Theus
2008,Peter Buehlmann
2008,John Fox
2008,Andrew Gelman
2008,Kurt Hornik
2008,Gary King
2008,Duncan Murdoch
2008,Jean Thioulouse
2008,Graham J. Williams
2007,John Chambers
2006,John Chambers
2006,Jan de Leeuw
2006,Brian Everitt
2006,John Fox
2006,Sanford Weisburg
2006,Trevor Hastie
2006,Stefano Iacus
2006,Uwe Ligges
2006,Simon Urbanek
2006,Paul Murrell
2006,Peter Rossi
2004,Paul Murrell
2004,Luke Tierney
2004,Friedrich Leisch
2004,Martin Maechler
2004,Kurt Hornik
2004,Peter Dalgaard
2004,Douglas Bates
2004,Brian D. Ripley
